{
  "EDITOR_STATE": {
    "allProjectFiles": {
      "376a00b6-0def-4693-82f1-479917f5243d": {
        "id": "376a00b6-0def-4693-82f1-479917f5243d",
        "parent": null,
        "name": "ktest.js",
        "type": "JS_LAMBDA",
        "isDirectory": false,
        "children": [],
        "isRemovable": true,
        "filePath": "ktest.js",
        "cursor": {
          "lineNumber": 10,
          "column": 27
        },
        "config": {
          "runtime": "nodejs10.x",
          "handler": "handler",
          "timeout": 60,
          "memory": 128,
          "layers": [],
          "name": "ktest"
        },
        "triggers": [
          {
            "resourceName": "apigTestAPIMyLambdapost",
            "config": {}
          }
        ],
        "lastUpdated": 1610701696326,
        "testCases": {
          "b8a413e4-d08c-4dcd-819e-195b6301ed20": {
            "id": "b8a413e4-d08c-4dcd-819e-195b6301ed20",
            "name": "Test event",
            "functionId": "376a00b6-0def-4693-82f1-479917f5243d",
            "event": "{\"key1\": \"value1\", \"key2\": \"value2\", \"key3\": \"value3\"}",
            "eventTemplate": "hello-world"
          }
        }
      }
    },
    "openFiles": [
      "376a00b6-0def-4693-82f1-479917f5243d"
    ],
    "currentFileId": "376a00b6-0def-4693-82f1-479917f5243d",
    "resources": {
      "apigTestAPIMyLambdapost": {
        "name": "apigTestAPIMyLambdapost",
        "type": "API_GATEWAY",
        "config": {
          "apiType": 1,
          "apiMode": 1,
          "apiName": "TestAPI",
          "apiId": "0itznun7w3",
          "endpointType": "EDGE",
          "rootResourceId": "h2lelj6j7k",
          "existingResources": {
            "/DDBresource": "0aenia",
            "/DDBresource/check": "70q21i",
            "/MyLambda": "98nqbj",
            "/": "h2lelj6j7k",
            "/newchange/test": "k6pdhn",
            "/newchange": "q1ox7l",
            "/testWithSlash": "q4m4g1",
            "/testtwospeciallambda": "q4szm3",
            "/testtwospecialkumutest": "wey3lk"
          },
          "resourceMode": 1,
          "resourcePath": "/MyLambda",
          "resourceName": "MyLambda",
          "resourceId": "98nqbj",
          "restMethod": "POST",
          "proxyIntegration": false,
          "enableCORS": false,
          "stageMode": 1,
          "stageName": "test",
          "stageDeploymentId": "m4w1bc",
          "mode": 1
        }
      },
      "cognitoTestCognito": {
        "name": "cognitoTestCognito",
        "type": "CognitoIdentityServiceProvider",
        "config": {
          "mode": 1,
          "name": "Test Cognito",
          "arn": "arn:aws:cognito-idp:us-east-1:318300609668:userpool/us-east-1_HdYJb7Znp",
          "userPool": {
            "Id": "us-east-1_HdYJb7Znp",
            "Name": "Test Cognito",
            "LambdaConfig": {
              "CustomMessage": "arn:aws:lambda:us-east-1:318300609668:function:testyyyinduuuu"
            },
            "Policies": {
              "PasswordPolicy": {
                "MinimumLength": 8,
                "RequireUppercase": true,
                "RequireLowercase": true,
                "RequireNumbers": true,
                "RequireSymbols": true,
                "TemporaryPasswordValidityDays": 7
              }
            },
            "VerificationMessageTemplate": {
              "DefaultEmailOption": "CONFIRM_WITH_CODE"
            },
            "MfaConfiguration": "OFF",
            "EmailConfiguration": {
              "EmailSendingAccount": "COGNITO_DEFAULT"
            },
            "SmsConfiguration": {
              "SnsCallerArn": "arn:aws:iam::318300609668:role/service-role/TestCognito-SMS-Role",
              "ExternalId": "a5aa9c3d-325f-4d4c-bd3e-06f1485e8375"
            },
            "UserPoolTags": {},
            "AdminCreateUserConfig": {
              "AllowAdminCreateUserOnly": false,
              "UnusedAccountValidityDays": 7
            },
            "SchemaAttributes": [
              {
                "Name": "sub",
                "AttributeDataType": "String",
                "DeveloperOnlyAttribute": false,
                "Mutable": false,
                "Required": true,
                "StringAttributeConstraints": {
                  "MinLength": "1",
                  "MaxLength": "2048"
                }
              },
              {
                "Name": "name",
                "AttributeDataType": "String",
                "DeveloperOnlyAttribute": false,
                "Mutable": true,
                "Required": false,
                "StringAttributeConstraints": {
                  "MinLength": "0",
                  "MaxLength": "2048"
                }
              },
              {
                "Name": "given_name",
                "AttributeDataType": "String",
                "DeveloperOnlyAttribute": false,
                "Mutable": true,
                "Required": false,
                "StringAttributeConstraints": {
                  "MinLength": "0",
                  "MaxLength": "2048"
                }
              },
              {
                "Name": "family_name",
                "AttributeDataType": "String",
                "DeveloperOnlyAttribute": false,
                "Mutable": true,
                "Required": false,
                "StringAttributeConstraints": {
                  "MinLength": "0",
                  "MaxLength": "2048"
                }
              },
              {
                "Name": "middle_name",
                "AttributeDataType": "String",
                "DeveloperOnlyAttribute": false,
                "Mutable": true,
                "Required": false,
                "StringAttributeConstraints": {
                  "MinLength": "0",
                  "MaxLength": "2048"
                }
              },
              {
                "Name": "nickname",
                "AttributeDataType": "String",
                "DeveloperOnlyAttribute": false,
                "Mutable": true,
                "Required": false,
                "StringAttributeConstraints": {
                  "MinLength": "0",
                  "MaxLength": "2048"
                }
              },
              {
                "Name": "preferred_username",
                "AttributeDataType": "String",
                "DeveloperOnlyAttribute": false,
                "Mutable": true,
                "Required": false,
                "StringAttributeConstraints": {
                  "MinLength": "0",
                  "MaxLength": "2048"
                }
              },
              {
                "Name": "profile",
                "AttributeDataType": "String",
                "DeveloperOnlyAttribute": false,
                "Mutable": true,
                "Required": false,
                "StringAttributeConstraints": {
                  "MinLength": "0",
                  "MaxLength": "2048"
                }
              },
              {
                "Name": "picture",
                "AttributeDataType": "String",
                "DeveloperOnlyAttribute": false,
                "Mutable": true,
                "Required": false,
                "StringAttributeConstraints": {
                  "MinLength": "0",
                  "MaxLength": "2048"
                }
              },
              {
                "Name": "website",
                "AttributeDataType": "String",
                "DeveloperOnlyAttribute": false,
                "Mutable": true,
                "Required": false,
                "StringAttributeConstraints": {
                  "MinLength": "0",
                  "MaxLength": "2048"
                }
              },
              {
                "Name": "email",
                "AttributeDataType": "String",
                "DeveloperOnlyAttribute": false,
                "Mutable": true,
                "Required": false,
                "StringAttributeConstraints": {
                  "MinLength": "0",
                  "MaxLength": "2048"
                }
              },
              {
                "Name": "email_verified",
                "AttributeDataType": "Boolean",
                "DeveloperOnlyAttribute": false,
                "Mutable": true,
                "Required": false
              },
              {
                "Name": "gender",
                "AttributeDataType": "String",
                "DeveloperOnlyAttribute": false,
                "Mutable": true,
                "Required": false,
                "StringAttributeConstraints": {
                  "MinLength": "0",
                  "MaxLength": "2048"
                }
              },
              {
                "Name": "birthdate",
                "AttributeDataType": "String",
                "DeveloperOnlyAttribute": false,
                "Mutable": true,
                "Required": false,
                "StringAttributeConstraints": {
                  "MinLength": "10",
                  "MaxLength": "10"
                }
              },
              {
                "Name": "zoneinfo",
                "AttributeDataType": "String",
                "DeveloperOnlyAttribute": false,
                "Mutable": true,
                "Required": false,
                "StringAttributeConstraints": {
                  "MinLength": "0",
                  "MaxLength": "2048"
                }
              },
              {
                "Name": "locale",
                "AttributeDataType": "String",
                "DeveloperOnlyAttribute": false,
                "Mutable": true,
                "Required": false,
                "StringAttributeConstraints": {
                  "MinLength": "0",
                  "MaxLength": "2048"
                }
              },
              {
                "Name": "phone_number",
                "AttributeDataType": "String",
                "DeveloperOnlyAttribute": false,
                "Mutable": true,
                "Required": false,
                "StringAttributeConstraints": {
                  "MinLength": "0",
                  "MaxLength": "2048"
                }
              },
              {
                "Name": "phone_number_verified",
                "AttributeDataType": "Boolean",
                "DeveloperOnlyAttribute": false,
                "Mutable": true,
                "Required": false
              },
              {
                "Name": "address",
                "AttributeDataType": "String",
                "DeveloperOnlyAttribute": false,
                "Mutable": true,
                "Required": false,
                "StringAttributeConstraints": {
                  "MinLength": "0",
                  "MaxLength": "2048"
                }
              },
              {
                "Name": "updated_at",
                "AttributeDataType": "Number",
                "DeveloperOnlyAttribute": false,
                "Mutable": true,
                "Required": false,
                "NumberAttributeConstraints": {
                  "MinValue": "0"
                }
              }
            ]
          }
        }
      }
    },
    "customTemplate": {
      "syntax": "JSON",
      "overrideDefault": false,
      "dialect": null,
      "definitions": null
    },
    "envVariables": [
      {
        "lambdaId": "all",
        "varKey": "SIGMA_AWS_ACC_ID",
        "varValue": null,
        "shouldPersist": false,
        "displayOnly": false,
        "editable": false
      }
    ],
    "packageJSON": {
      "dependencies": {
        "aws-sdk": {
          "name": "aws-sdk",
          "language": "nodejs",
          "version": "2.817.0",
          "dev": true,
          "notRemovable": false
        }
      }
    }
  },
  "PROJECT_META": {
    "sigmaVersion": "1.5.1",
    "projectName": "ktest",
    "projectDescription": "",
    "projectVersion": "1.0.0",
    "projectRegion": "us-east-1",
    "platform": "AWS",
    "language": "nodejs",
    "platformRegions": {},
    "lastSave": 1610701886269
  },
  "VCS_STATE": {
    "provider": "BitBucket",
    "repo": {
      "name": "ktest",
      "url": "https://bitbucket.org/KumudikaR/ktest"
    }
  }
}